{
  "model": "StudentGradeRemarkActions",
  "settings": {
    "i18n": {
      "el": {
        "Select the course for this request. All passed courses are available for re-marking. <br>If the request is approved, you can register again for the course and take the exam. The previous grade will be cancelled and will no longer be considered as passed.": "Επιλέξτε το μάθημα που θέλετε να αιτηθείτε αναβαθμολόγηση. Όλα τα περασμένα μαθήματα είναι διαθέσιμα προς αναβαθμολόγηση. <br>Αν η αίτηση εγκριθεί, μπορείτε να ξαναδηλώσετε και να εξεταστείτε εκ νέου στο μάθημα. Ο προηγούμενος βαθμός θα τεθεί σε κατάσταση αναβαθμολόγησης και δε θα θεωρείται πλέον προβιβάσιμος.",
        "Additional notes for the request": "Ορίστε κάποια επιπλέον σημείωση εάν χρειάζεται η αίτηση",
        "Select course": "Επιλέξτε μάθημα",
        "Comments": "Σχόλια"
      }
    }
  },
  "components": [
    {
      "key": "fieldset",
      "type": "fieldset",
      "input": false,
      "components": [
        {
          "columns": [
            {
              "components": [
                {
                  "label": "Select course",
                  "widget": "choicesjs",
                  "dataSrc": "url",
                  "data": {
                    "url": "/students/me/grades?_t={{new Date().getTime()}}&$filter=status/alternateName eq 'normal' and isPassed eq 1 and remark/id eq null&$top=-1&$expand=remark,courseExam($expand=course)&$orderby=courseExam/name",
                    "headers": []
                  },
                  "selectThreshold": 0.3,
                  "validate": {
                    "required": true
                  },
                  "template": "{{ item.courseExam.course.displayCode}} - {{item.courseExam.description}} ({{item.formattedGrade}})",
                  "key": "courseExam",
                  "valueProperty": "courseExam",
                  "selectValues": "value",
                  "type": "select",
                  "input": true,
                  "disableLimit": false,
                  "lazyLoad": true,
                  "description": "Select the course for this request. All passed courses are available for re-marking. <br>If the request is approved, you can register again for the course and take the exam. The previous grade will be cancelled and will no longer be considered as passed."
                }
              ],
              "width": 12,
              "offset": 0,
              "push": 0,
              "pull": 0
            },
            {
              "components": [
                {
                  "label": "Comments",
                  "widget": "choicesjs",
                  "selectThreshold": 0.3,
                  "validate": {
                    "unique": false,
                    "multiple": false
                  },
                  "key": "comments",
                  "type": "textarea",
                  "input": true,
                  "hideOnChildrenHidden": false,
                  "disableLimit": false,
                  "description": "Additional notes for the request"
                }
              ],
              "width": 12,
              "offset": 0,
              "push": 0,
              "pull": 0
            },
            {
              "components": [
                {
                  "label": "Status",
                  "widget": "choicesjs",
                  "dataSrc": "json",
                  "data": {
                    "json": [
                      {
                        "alternateName": "ActiveActionStatus"
                      }
                    ]
                  },
                  "template": "{{ item.alternateName }}",
                  "key": "actionStatus",
                  "dataType": "object",
                  "idPath": "id",
                  "selectValues": "value",
                  "type": "select",
                  "input": true,
                  "hideOnChildrenHidden": false,
                  "calculateValue": "value = component.data.json[0];",
                  "clearOnHide": false,
                  "hidden": true
                }
              ],
              "width": 4,
              "offset": 0,
              "push": 0,
              "pull": 0
            }
          ],
          "customClass": "text-dark",
          "type": "columns",
          "input": false
        }
      ]
    },
    {
      "type": "button",
      "label": "Submit",
      "key": "submit",
      "disableOnInvalid": true,
      "input": true
    }
  ]
}
